Projet séries temporelles
…
On constate là encore que le modèle ARIMA propose une erreur de
prédiction moyenne moins élevée : il s’agit donc à ce stage du meilleur
modèle dont nous disposions.

Bonus

prix <- read.csv(file="C:/Users/timot/Documents/Data/TimeSeries/price.txt", sep=';')
prix <- prix %>% pivot_longer(everything(), names_to='Year', values_to='Prix')
prix$Year <- as.numeric(str_replace_all(prix$Year, 'X', ''))
prix

## # A tibble: 62 × 2
##     Year  Prix
##    <dbl> <dbl>
##  1  1960  1.63
##  2  1961  1.57
##  3  1962  1.52
##  4  1963  1.5 
##  5  1964  1.45
##  6  1965  1.42
##  7  1966  1.36
##  8  1967  1.33
##  9  1968  1.32
## 10  1969  1.27
## # … with 52 more rows
…
demande <- read.csv(file="C:/Users/timot/Documents/Data/TimeSeries/oil-demand.txt", sep=';')
demande <- demande %>% pivot_longer(everything(), names_to='Year', values_to='Demande')
demande$Demande <- as.numeric(str_replace_all(demande$Demande, ' ', ''))
demande$Year <- as.numeric(str_replace_all(demande$Year, 'X', ''))
demande

## # A tibble: 62 × 2
##     Year Demande
##    <dbl>   <dbl>
##  1  1960   21396
##  2  1961   22680
##  3  1962   24590
##  4  1963   26772
##  5  1964   28887
##  6  1965   31046
##  7  1966   33514
##  8  1967   35639
##  9  1968   38803
## 10  1969   42245
## # … with 52 more rows
…
